%YAML 1.1
%TAG !u! tag:unity3d.com,2011:
--- !u!162 &1
EditorUserSettings:
  m_ObjectHideFlags: 0
  serializedVersion: 4
  m_ConfigSettings:
    RecentlyUsedSceneGuid-0:
      value: 0608045752515c5d54580e7b167306444e4e1a7e2e7b71357c2d4b36e0b9656c
      flags: 0
    RecentlyUsedSceneGuid-1:
      value: 505556575d065e580e575b2349765a44154e407c7d787f667b2f1c30b0e2643a
      flags: 0
    RecentlyUsedSceneGuid-2:
      value: 06050c56510d5d5d55565c7112700644434f1e73797a72637c2f4f6abab8606b
      flags: 0
    RecentlyUsedSceneGuid-3:
      value: 0509065006065e0a540b0d7611220c4410164b7e7d7a726378784b31b1b86360
      flags: 0
    RecentlyUsedSceneGuid-4:
      value: 5005020751505c0a540b5e201670074417161d79297e72357a7c4c66bab63160
      flags: 0
    vcSharedLogLevel:
      value: 0d5e400f0650
      flags: 0
  m_VCAutomaticAdd: 1
  m_VCDebugCom: 0
  m_VCDebugCmd: 0
  m_VCDebugOut: 0
  m_SemanticMergeMode: 2
  m_DesiredImportWorkerCount: 2
  m_StandbyImportWorkerCount: 2
  m_IdleImportWorkerShutdownDelay: 60000
  m_VCShowFailedCheckout: 1
  m_VCOverwriteFailedCheckoutAssets: 1
  m_VCProjectOverlayIcons: 1
  m_VCHierarchyOverlayIcons: 1
  m_VCOtherOverlayIcons: 1
  m_VCAllowAsyncUpdate: 1
  m_ArtifactGarbageCollection: 1
